# Wavefront OBJ exported by MilkShape 3D

v 7.425554 -0.182154 -0.621340
v 7.469421 0.170231 -0.500817
v 7.513288 0.522615 -0.380295
v 7.557154 0.875000 -0.259772
v 7.601021 1.227385 -0.139249
v 7.644888 1.579769 -0.018727
v 7.688754 1.932154 0.101796
v 7.464706 -0.374541 -0.073090
v 7.508573 -0.022156 0.047432
v 7.552440 0.330229 0.167955
v 7.596306 0.682614 0.288478
v 7.640173 1.034998 0.409000
v 7.684040 1.387383 0.529523
v 7.727906 1.739768 0.650046
v 7.210104 -0.515377 0.431356
v 7.253971 -0.162992 0.551879
v 7.297838 0.189392 0.672401
v 7.341704 0.541777 0.792924
v 7.385571 0.894162 0.913447
v 7.429438 1.246547 1.033969
v 7.473304 1.598931 1.154492
v 6.729968 -0.566927 0.756833
v 6.773835 -0.214542 0.877355
v 6.817701 0.137843 0.997878
v 6.861568 0.490227 1.118401
v 6.905435 0.842612 1.238923
v 6.949301 1.194997 1.359446
v 6.993168 1.547382 1.479969
v 6.152950 -0.515377 0.816128
v 6.196817 -0.162992 0.936651
v 6.240684 0.189392 1.057174
v 6.284550 0.541777 1.177697
v 6.328417 0.894162 1.298219
v 6.372283 1.246547 1.418742
v 6.416150 1.598931 1.539265
v 5.633662 -0.374541 0.593355
v 5.677528 -0.022156 0.713878
v 5.721395 0.330229 0.834401
v 5.765262 0.682614 0.954923
v 5.809129 1.034998 1.075446
v 5.852995 1.387383 1.195969
v 5.896862 1.739768 1.316491
v 5.311246 -0.182154 0.148205
v 5.355113 0.170231 0.268728
v 5.398979 0.522615 0.389251
v 5.442846 0.875000 0.509773
v 5.486712 1.227385 0.630296
v 5.530579 1.579769 0.750819
v 5.574446 1.932154 0.871341
v 5.272094 0.010232 -0.400044
v 5.315960 0.362617 -0.279522
v 5.359827 0.715002 -0.158999
v 5.403694 1.067386 -0.038477
v 5.447560 1.419771 0.082046
v 5.491427 1.772156 0.202569
v 5.535294 2.124541 0.323092
v 5.526696 0.151069 -0.904491
v 5.570562 0.503453 -0.783968
v 5.614429 0.855838 -0.663445
v 5.658296 1.208223 -0.542923
v 5.702163 1.560608 -0.422400
v 5.746029 1.912992 -0.301877
v 5.789896 2.265377 -0.181355
v 6.006832 0.202618 -1.229967
v 6.050699 0.555003 -1.109445
v 6.094565 0.907388 -0.988922
v 6.138432 1.259773 -0.868399
v 6.182299 1.612157 -0.747877
v 6.226165 1.964542 -0.627354
v 6.270032 2.316927 -0.506831
v 6.583850 0.151069 -1.289263
v 6.627717 0.503453 -1.168741
v 6.671584 0.855838 -1.048218
v 6.715450 1.208223 -0.927695
v 6.759317 1.560608 -0.807173
v 6.803184 1.912992 -0.686650
v 6.847050 2.265377 -0.566127
v 7.103138 0.010232 -1.066490
v 7.147005 0.362617 -0.945968
v 7.190872 0.715002 -0.825445
v 7.234738 1.067386 -0.704922
v 7.278605 1.419771 -0.584399
v 7.322472 1.772156 -0.463877
v 7.366338 2.124541 -0.343354
v 6.631600 1.932154 0.486569
v 6.368400 -0.182154 -0.236567
# 86 vertices

vt 0.000000 1.000000
vt 0.000000 0.000000
vt 0.000000 0.166667
vt 0.083333 0.166667
vt 0.083333 0.000000
vt 0.000000 0.333333
vt 0.083333 0.333333
vt 0.000000 0.500000
vt 0.083333 0.500000
vt 0.000000 0.666667
vt 0.083333 0.666667
vt 0.000000 0.833333
vt 0.083333 0.833333
vt 0.083333 1.000000
vt 0.166667 0.000000
vt 0.166667 0.166667
vt 0.166667 0.333333
vt 0.166667 0.500000
vt 0.166667 0.666667
vt 0.166667 0.833333
vt 0.166667 1.000000
vt 0.250000 0.166667
vt 0.250000 0.000000
vt 0.250000 0.333333
vt 0.250000 0.500000
vt 0.250000 0.666667
vt 0.250000 0.833333
vt 0.250000 1.000000
vt 0.333333 0.000000
vt 0.333333 0.166667
vt 0.333333 0.333333
vt 0.333333 0.500000
vt 0.333333 0.666667
vt 0.333333 0.833333
vt 0.333333 1.000000
vt 0.416667 0.166667
vt 0.416667 0.000000
vt 0.416667 0.333333
vt 0.416667 0.500000
vt 0.416667 0.666667
vt 0.416667 0.833333
vt 0.416667 1.000000
vt 0.500000 0.000000
vt 0.500000 0.166667
vt 0.500000 0.333333
vt 0.500000 0.500000
vt 0.500000 0.666667
vt 0.500000 0.833333
vt 0.500000 1.000000
vt 0.583333 0.166667
vt 0.583333 0.000000
vt 0.583333 0.333333
vt 0.583333 0.500000
vt 0.583333 0.666667
vt 0.583333 0.833333
vt 0.583333 1.000000
vt 0.666667 0.000000
vt 0.666667 0.166667
vt 0.666667 0.333333
vt 0.666667 0.500000
vt 0.666667 0.666667
vt 0.666667 0.833333
vt 0.666667 1.000000
vt 0.750000 0.166667
vt 0.750000 0.000000
vt 0.750000 0.333333
vt 0.750000 0.500000
vt 0.750000 0.666667
vt 0.750000 0.833333
vt 0.750000 1.000000
vt 0.833333 0.000000
vt 0.833333 0.166667
vt 0.833333 0.333333
vt 0.833333 0.500000
vt 0.833333 0.666667
vt 0.833333 0.833333
vt 0.833333 1.000000
vt 0.916667 0.166667
vt 0.916667 0.000000
vt 0.916667 0.333333
vt 0.916667 0.500000
vt 0.916667 0.666667
vt 0.916667 0.833333
vt 0.916667 1.000000
vt 1.000000 0.000000
vt 1.000000 0.166667
vt 1.000000 0.333333
vt 1.000000 0.500000
vt 1.000000 0.666667
vt 1.000000 0.833333
vt 1.000000 1.000000
# 91 texture coordinates

vn -0.116978 -0.939693 -0.321394
vn 0.116978 0.939693 0.321394
vn 0.939693 0.000000 -0.342020
vn 0.974495 -0.171010 0.145313
vn 0.748182 -0.296198 0.593710
vn 0.321394 -0.342020 0.883022
vn -0.191511 -0.296198 0.935730
vn -0.653101 -0.171010 0.737709
vn -0.939693 -0.000000 0.342020
vn -0.974495 0.171010 -0.145313
vn -0.748182 0.296198 -0.593710
vn -0.321394 0.342020 -0.883022
vn 0.191511 0.296198 -0.935730
vn 0.653101 0.171010 -0.737709
# 14 normals

g Cylinder05
s 2
f 1/1/1 8/1/1 86/1/1
f 7/1/2 85/1/2 14/1/2
s 1
f 1/2/3 2/3/3 9/4/4
f 1/2/3 9/4/4 8/5/4
f 2/3/3 3/6/3 9/4/4
f 3/6/3 10/7/4 9/4/4
f 3/6/3 4/8/3 11/9/4
f 3/6/3 11/9/4 10/7/4
f 4/8/3 5/10/3 11/9/4
f 5/10/3 12/11/4 11/9/4
f 5/10/3 6/12/3 13/13/4
f 5/10/3 13/13/4 12/11/4
f 6/12/3 7/1/3 13/13/4
f 7/1/3 14/14/4 13/13/4
s 2
f 8/1/1 15/1/1 86/1/1
f 14/1/2 85/1/2 21/1/2
s 1
f 8/5/4 9/4/4 15/15/5
f 9/4/4 16/16/5 15/15/5
f 9/4/4 10/7/4 17/17/5
f 9/4/4 17/17/5 16/16/5
f 10/7/4 11/9/4 17/17/5
f 11/9/4 18/18/5 17/17/5
f 11/9/4 12/11/4 19/19/5
f 11/9/4 19/19/5 18/18/5
f 12/11/4 13/13/4 19/19/5
f 13/13/4 20/20/5 19/19/5
f 13/13/4 14/14/4 21/21/5
f 13/13/4 21/21/5 20/20/5
s 2
f 15/1/1 22/1/1 86/1/1
f 21/1/2 85/1/2 28/1/2
s 1
f 15/15/5 16/16/5 23/22/6
f 15/15/5 23/22/6 22/23/6
f 16/16/5 17/17/5 23/22/6
f 17/17/5 24/24/6 23/22/6
f 17/17/5 18/18/5 25/25/6
f 17/17/5 25/25/6 24/24/6
f 18/18/5 19/19/5 25/25/6
f 19/19/5 26/26/6 25/25/6
f 19/19/5 20/20/5 27/27/6
f 19/19/5 27/27/6 26/26/6
f 20/20/5 21/21/5 27/27/6
f 21/21/5 28/28/6 27/27/6
s 2
f 22/1/1 29/1/1 86/1/1
f 28/1/2 85/1/2 35/1/2
s 1
f 22/23/6 23/22/6 29/29/7
f 23/22/6 30/30/7 29/29/7
f 23/22/6 24/24/6 31/31/7
f 23/22/6 31/31/7 30/30/7
f 24/24/6 25/25/6 31/31/7
f 25/25/6 32/32/7 31/31/7
f 25/25/6 26/26/6 33/33/7
f 25/25/6 33/33/7 32/32/7
f 26/26/6 27/27/6 33/33/7
f 27/27/6 34/34/7 33/33/7
f 27/27/6 28/28/6 35/35/7
f 27/27/6 35/35/7 34/34/7
s 2
f 29/1/1 36/1/1 86/1/1
f 35/1/2 85/1/2 42/1/2
s 1
f 29/29/7 30/30/7 37/36/8
f 29/29/7 37/36/8 36/37/8
f 30/30/7 31/31/7 37/36/8
f 31/31/7 38/38/8 37/36/8
f 31/31/7 32/32/7 39/39/8
f 31/31/7 39/39/8 38/38/8
f 32/32/7 33/33/7 39/39/8
f 33/33/7 40/40/8 39/39/8
f 33/33/7 34/34/7 41/41/8
f 33/33/7 41/41/8 40/40/8
f 34/34/7 35/35/7 41/41/8
f 35/35/7 42/42/8 41/41/8
s 2
f 36/1/1 43/1/1 86/1/1
f 42/1/2 85/1/2 49/1/2
s 1
f 36/37/8 37/36/8 43/43/9
f 37/36/8 44/44/9 43/43/9
f 37/36/8 38/38/8 45/45/9
f 37/36/8 45/45/9 44/44/9
f 38/38/8 39/39/8 45/45/9
f 39/39/8 46/46/9 45/45/9
f 39/39/8 40/40/8 47/47/9
f 39/39/8 47/47/9 46/46/9
f 40/40/8 41/41/8 47/47/9
f 41/41/8 48/48/9 47/47/9
f 41/41/8 42/42/8 49/49/9
f 41/41/8 49/49/9 48/48/9
s 2
f 43/1/1 50/1/1 86/1/1
f 49/1/2 85/1/2 56/1/2
s 1
f 43/43/9 44/44/9 51/50/10
f 43/43/9 51/50/10 50/51/10
f 44/44/9 45/45/9 51/50/10
f 45/45/9 52/52/10 51/50/10
f 45/45/9 46/46/9 53/53/10
f 45/45/9 53/53/10 52/52/10
f 46/46/9 47/47/9 53/53/10
f 47/47/9 54/54/10 53/53/10
f 47/47/9 48/48/9 55/55/10
f 47/47/9 55/55/10 54/54/10
f 48/48/9 49/49/9 55/55/10
f 49/49/9 56/56/10 55/55/10
s 2
f 50/1/1 57/1/1 86/1/1
f 56/1/2 85/1/2 63/1/2
s 1
f 50/51/10 51/50/10 57/57/11
f 51/50/10 58/58/11 57/57/11
f 51/50/10 52/52/10 59/59/11
f 51/50/10 59/59/11 58/58/11
f 52/52/10 53/53/10 59/59/11
f 53/53/10 60/60/11 59/59/11
f 53/53/10 54/54/10 61/61/11
f 53/53/10 61/61/11 60/60/11
f 54/54/10 55/55/10 61/61/11
f 55/55/10 62/62/11 61/61/11
f 55/55/10 56/56/10 63/63/11
f 55/55/10 63/63/11 62/62/11
s 2
f 57/1/1 64/1/1 86/1/1
f 63/1/2 85/1/2 70/1/2
s 1
f 57/57/11 58/58/11 65/64/12
f 57/57/11 65/64/12 64/65/12
f 58/58/11 59/59/11 65/64/12
f 59/59/11 66/66/12 65/64/12
f 59/59/11 60/60/11 67/67/12
f 59/59/11 67/67/12 66/66/12
f 60/60/11 61/61/11 67/67/12
f 61/61/11 68/68/12 67/67/12
f 61/61/11 62/62/11 69/69/12
f 61/61/11 69/69/12 68/68/12
f 62/62/11 63/63/11 69/69/12
f 63/63/11 70/70/12 69/69/12
s 2
f 64/1/1 71/1/1 86/1/1
f 70/1/2 85/1/2 77/1/2
s 1
f 64/65/12 65/64/12 71/71/13
f 65/64/12 72/72/13 71/71/13
f 65/64/12 66/66/12 73/73/13
f 65/64/12 73/73/13 72/72/13
f 66/66/12 67/67/12 73/73/13
f 67/67/12 74/74/13 73/73/13
f 67/67/12 68/68/12 75/75/13
f 67/67/12 75/75/13 74/74/13
f 68/68/12 69/69/12 75/75/13
f 69/69/12 76/76/13 75/75/13
f 69/69/12 70/70/12 77/77/13
f 69/69/12 77/77/13 76/76/13
s 2
f 71/1/1 78/1/1 86/1/1
f 77/1/2 85/1/2 84/1/2
s 1
f 71/71/13 72/72/13 79/78/14
f 71/71/13 79/78/14 78/79/14
f 72/72/13 73/73/13 79/78/14
f 73/73/13 80/80/14 79/78/14
f 73/73/13 74/74/13 81/81/14
f 73/73/13 81/81/14 80/80/14
f 74/74/13 75/75/13 81/81/14
f 75/75/13 82/82/14 81/81/14
f 75/75/13 76/76/13 83/83/14
f 75/75/13 83/83/14 82/82/14
f 76/76/13 77/77/13 83/83/14
f 77/77/13 84/84/14 83/83/14
s 2
f 78/1/1 1/1/1 86/1/1
f 84/1/2 85/1/2 7/1/2
s 1
f 78/79/14 79/78/14 1/85/3
f 79/78/14 2/86/3 1/85/3
f 79/78/14 80/80/14 3/87/3
f 79/78/14 3/87/3 2/86/3
f 80/80/14 81/81/14 3/87/3
f 81/81/14 4/88/3 3/87/3
f 81/81/14 82/82/14 5/89/3
f 81/81/14 5/89/3 4/88/3
f 82/82/14 83/83/14 5/89/3
f 83/83/14 6/90/3 5/89/3
f 83/83/14 84/84/14 7/91/3
f 83/83/14 7/91/3 6/90/3
# 168 triangles in group

# 168 triangles total

