^C:\USERS\TIKLU\DOCUMENTS\VISUAL STUDIO 2010\PROJECTS\ASSIGNMENT5\ASSIGNMENT5\3DS.CPP
/c /ZI /nologo /W3 /WX- /Od /Oy- /D WIN32 /D _DEBUG /D _CONSOLE /D _UNICODE /D UNICODE /Gm /EHsc /RTC1 /MDd /GS /fp:precise /Zc:wchar_t /Zc:forScope /Fo"Debug\\" /Fd"Debug\vc100.pdb" /Gd /TP /analyze- /errorReport:prompt C:\USERS\TIKLU\DOCUMENTS\VISUAL STUDIO 2010\PROJECTS\ASSIGNMENT5\ASSIGNMENT5\3DS.CPP
^C:\USERS\TIKLU\DOCUMENTS\VISUAL STUDIO 2010\PROJECTS\ASSIGNMENT5\ASSIGNMENT5\STARTER.CPP
/c /ZI /nologo /W3 /WX- /Od /Oy- /D WIN32 /D _DEBUG /D _CONSOLE /D _UNICODE /D UNICODE /Gm /EHsc /RTC1 /MDd /GS /fp:precise /Zc:wchar_t /Zc:forScope /Fo"Debug\\" /Fd"Debug\vc100.pdb" /Gd /TP /analyze- /errorReport:prompt C:\USERS\TIKLU\DOCUMENTS\VISUAL STUDIO 2010\PROJECTS\ASSIGNMENT5\ASSIGNMENT5\STARTER.CPP
^C:\USERS\TIKLU\DOCUMENTS\VISUAL STUDIO 2010\PROJECTS\ASSIGNMENT5\ASSIGNMENT5\XMLPARSER.CPP
/c /ZI /nologo /W3 /WX- /Od /Oy- /D WIN32 /D _DEBUG /D _CONSOLE /D _UNICODE /D UNICODE /Gm /EHsc /RTC1 /MDd /GS /fp:precise /Zc:wchar_t /Zc:forScope /Fo"Debug\\" /Fd"Debug\vc100.pdb" /Gd /TP /analyze- /errorReport:prompt C:\USERS\TIKLU\DOCUMENTS\VISUAL STUDIO 2010\PROJECTS\ASSIGNMENT5\ASSIGNMENT5\XMLPARSER.CPP
