^C:\USERS\TIKLU\DOCUMENTS\VISUAL STUDIO 2010\PROJECTS\ASSIGNMENT5\ASSIGNMENT5\3DS.CPP|C:\USERS\TIKLU\DOCUMENTS\VISUAL STUDIO 2010\PROJECTS\ASSIGNMENT5\ASSIGNMENT5\STARTER.CPP|C:\USERS\TIKLU\DOCUMENTS\VISUAL STUDIO 2010\PROJECTS\ASSIGNMENT5\ASSIGNMENT5\XMLPARSER.CPP
C:\USERS\TIKLU\DOCUMENTS\VISUAL STUDIO 2010\PROJECTS\ASSIGNMENT5\ASSIGNMENT5\DEBUG\3DS.OBJ
C:\USERS\TIKLU\DOCUMENTS\VISUAL STUDIO 2010\PROJECTS\ASSIGNMENT5\ASSIGNMENT5\DEBUG\STARTER.OBJ
C:\USERS\TIKLU\DOCUMENTS\VISUAL STUDIO 2010\PROJECTS\ASSIGNMENT5\ASSIGNMENT5\DEBUG\XMLPARSER.OBJ
^C:\USERS\TIKLU\DOCUMENTS\VISUAL STUDIO 2010\PROJECTS\ASSIGNMENT5\ASSIGNMENT5\3DS.CPP
C:\USERS\TIKLU\DOCUMENTS\VISUAL STUDIO 2010\PROJECTS\ASSIGNMENT5\ASSIGNMENT5\DEBUG\VC100.PDB
^C:\USERS\TIKLU\DOCUMENTS\VISUAL STUDIO 2010\PROJECTS\ASSIGNMENT5\ASSIGNMENT5\STARTER.CPP
C:\USERS\TIKLU\DOCUMENTS\VISUAL STUDIO 2010\PROJECTS\ASSIGNMENT5\ASSIGNMENT5\DEBUG\VC100.PDB
^C:\USERS\TIKLU\DOCUMENTS\VISUAL STUDIO 2010\PROJECTS\ASSIGNMENT5\ASSIGNMENT5\XMLPARSER.CPP
C:\USERS\TIKLU\DOCUMENTS\VISUAL STUDIO 2010\PROJECTS\ASSIGNMENT5\ASSIGNMENT5\DEBUG\VC100.PDB
