^C:\USERS\TIKLU\DOCUMENTS\VISUAL STUDIO 2010\PROJECTS\ASSIGNMENT5\ASSIGNMENT5\DEBUG\3DS.OBJ|C:\USERS\TIKLU\DOCUMENTS\VISUAL STUDIO 2010\PROJECTS\ASSIGNMENT5\ASSIGNMENT5\DEBUG\ASSIGNMENT5.EXE.EMBED.MANIFEST.RES|C:\USERS\TIKLU\DOCUMENTS\VISUAL STUDIO 2010\PROJECTS\ASSIGNMENT5\ASSIGNMENT5\DEBUG\STARTER.OBJ|C:\USERS\TIKLU\DOCUMENTS\VISUAL STUDIO 2010\PROJECTS\ASSIGNMENT5\ASSIGNMENT5\DEBUG\XMLPARSER.OBJ
C:\PROGRAM FILES\MICROSOFT SDKS\WINDOWS\V7.0A\LIB\KERNEL32.LIB
C:\PROGRAM FILES\MICROSOFT SDKS\WINDOWS\V7.0A\LIB\USER32.LIB
C:\PROGRAM FILES\MICROSOFT SDKS\WINDOWS\V7.0A\LIB\GDI32.LIB
C:\PROGRAM FILES\MICROSOFT SDKS\WINDOWS\V7.0A\LIB\WINSPOOL.LIB
C:\PROGRAM FILES\MICROSOFT SDKS\WINDOWS\V7.0A\LIB\COMDLG32.LIB
C:\PROGRAM FILES\MICROSOFT SDKS\WINDOWS\V7.0A\LIB\ADVAPI32.LIB
C:\PROGRAM FILES\MICROSOFT SDKS\WINDOWS\V7.0A\LIB\SHELL32.LIB
C:\PROGRAM FILES\MICROSOFT SDKS\WINDOWS\V7.0A\LIB\OLE32.LIB
C:\PROGRAM FILES\MICROSOFT SDKS\WINDOWS\V7.0A\LIB\OLEAUT32.LIB
C:\PROGRAM FILES\MICROSOFT SDKS\WINDOWS\V7.0A\LIB\UUID.LIB
C:\PROGRAM FILES\MICROSOFT SDKS\WINDOWS\V7.0A\LIB\ODBC32.LIB
C:\PROGRAM FILES\MICROSOFT SDKS\WINDOWS\V7.0A\LIB\ODBCCP32.LIB
C:\USERS\TIKLU\DOCUMENTS\VISUAL STUDIO 2010\PROJECTS\ASSIGNMENT5\ASSIGNMENT5\DEBUG\ASSIGNMENT5.EXE.EMBED.MANIFEST.RES
C:\USERS\TIKLU\DOCUMENTS\VISUAL STUDIO 2010\PROJECTS\ASSIGNMENT5\ASSIGNMENT5\DEBUG\3DS.OBJ
C:\USERS\TIKLU\DOCUMENTS\VISUAL STUDIO 2010\PROJECTS\ASSIGNMENT5\ASSIGNMENT5\DEBUG\STARTER.OBJ
C:\USERS\TIKLU\DOCUMENTS\VISUAL STUDIO 2010\PROJECTS\ASSIGNMENT5\ASSIGNMENT5\DEBUG\XMLPARSER.OBJ
C:\WINDOWS\GLOBALIZATION\SORTING\SORTDEFAULT.NLS
C:\PROGRAM FILES\MICROSOFT VISUAL STUDIO 10.0\VC\LIB\MSVCPRTD.LIB
C:\PROGRAM FILES\MICROSOFT VISUAL STUDIO 10.0\VC\LIB\MSVCRTD.LIB
C:\PROGRAM FILES\MICROSOFT VISUAL STUDIO 10.0\VC\LIB\OLDNAMES.LIB
C:\PROGRAM FILES\MICROSOFT SDKS\WINDOWS\V7.0A\LIB\WINMM.LIB
C:\PROGRAM FILES\MICROSOFT SDKS\WINDOWS\V7.0A\LIB\OPENGL32.LIB
C:\PROGRAM FILES\MICROSOFT SDKS\WINDOWS\V7.0A\LIB\GLU32.LIB
C:\USERS\TIKLU\DOCUMENTS\VISUAL STUDIO 2010\PROJECTS\ASSIGNMENT5\ASSIGNMENT5\GLUT32.LIB
C:\PROGRAM FILES\MICROSOFT VISUAL STUDIO 10.0\VC\BIN\CVTRES.EXE
C:\WINDOWS\SYSTEM32\TZRES.DLL
C:\USERS\TIKLU\DOCUMENTS\VISUAL STUDIO 2010\PROJECTS\ASSIGNMENT5\DEBUG\ASSIGNMENT5.EXE
C:\WINDOWS\SYSTEM32\RSAENH.DLL
C:\USERS\TIKLU\DOCUMENTS\VISUAL STUDIO 2010\PROJECTS\ASSIGNMENT5\DEBUG\ASSIGNMENT5.PDB
C:\PROGRAM FILES\MICROSOFT VISUAL STUDIO 10.0\VC\BIN\LINK.EXE
